Line 19: Class SSFrame of control frame was not a loaded control class.
Line 380: Class SpreadSheet of control ss was not a loaded control class.
Line 20: The property name Caption in frame is invalid.
Line 381: The property name AllowResize in ss is invalid.
Line 382: The property name DisplayRowHeaders in ss is invalid.
Line 390: The property name InterfaceDesigner in ss is invalid.
Line 392: The property name MaxCols in ss is invalid.
Line 393: The property name ScrollBars in ss is invalid.
Line 394: The property name SelectBlockOptions in ss is invalid.
